{
  "avatars": [
    {
      "id": 1,
      "url": "https://noroff-react-txt-forum-api.herokuapp.com/assets/images/001.svg"
    },
    {
      "url": "https://noroff-react-txt-forum-api.herokuapp.com/assets/images/002.svg",
      "createdAt": 1615487485942,
      "id": 2
    },
    {
      "url": "https://noroff-react-txt-forum-api.herokuapp.com/assets/images/003.svg",
      "createdAt": 1615487499722,
      "id": 3
    },
    {
      "url": "https://noroff-react-txt-forum-api.herokuapp.com/assets/images/004.svg",
      "createdAt": 1615487503586,
      "id": 4
    },
    {
      "url": "https://noroff-react-txt-forum-api.herokuapp.com/assets/images/005.svg",
      "createdAt": 1615487507304,
      "id": 5
    },
    {
      "url": "https://noroff-react-txt-forum-api.herokuapp.com/assets/images/006.svg",
      "createdAt": 1615487512069,
      "id": 6
    },
    {
      "url": "https://noroff-react-txt-forum-api.herokuapp.com/assets/images/007.svg",
      "createdAt": 1615487519686,
      "id": 7
    },
    {
      "url": "https://noroff-react-txt-forum-api.herokuapp.com/assets/images/008.svg",
      "createdAt": 1615487524464,
      "id": 8
    }
  ],
  "users": [
    {
      "id": "eed366088eaad-67f04d0c18e17",
      "username": "dewaldels",
      "password": "7023c0b5d1f5858efadc3fc50d4e3830f8fef1cdafc4a4c32395156a73eab9a075c43d92790de372c92bda4745f401dd22f13478ae7f3de8f9bf2b051ff4aa53",
      "createdAt": 1615939213326,
      "avatar": "https://noroff-react-txt-forum-api.herokuapp.com/assets/images/001.svg",
      "lastLogin": 1616766258840
    },
    {
      "id": "68d95189f9eed-e3d76f4465cab",
      "username": "mervin",
      "password": "7023c0b5d1f5858efadc3fc50d4e3830f8fef1cdafc4a4c32395156a73eab9a075c43d92790de372c92bda4745f401dd22f13478ae7f3de8f9bf2b051ff4aa53",
      "createdAt": 1615939632622,
      "avatar": "https://noroff-react-txt-forum-api.herokuapp.com/assets/images/002.svg"
    }
  ],
  "posts": [
    {
      "id": "68fce459bbcbb-9d2e7d74786e7",
      "title": "Post with auto creation date",
      "body": "This post was created with an auto date",
      "tags": [
        "express",
        "nodejs"
      ],
      "username": "dewaldels",
      "userId": "eed366088eaad-67f04d0c18e17",
      "createdAt": 1616091060066
    },
    {
      "id": "b3ab630f6c694-3b5ffc3a1a6d1",
      "title": "Hello TXT Forum",
      "body": "Hello! I like React!",
      "tags": [
        "react",
        "front-end"
      ],
      "username": "mervin",
      "userId": "68d95189f9eed-e3d76f4465cab",
      "createdAt": 1616091293708
    },
    {
      "id": "c5dd369a53dbb-dbaf3c4a5b133",
      "title": "Learning Vue",
      "body": "Vue is pretty great! It has everything",
      "tags": [
        "vuejs",
        "learning"
      ],
      "username": "mervin",
      "userId": "68d95189f9eed-e3d76f4465cab",
      "createdAt": 1616091326505
    },
    {
      "id": "e9ca31ef70686-1558844e7b21c",
      "title": "Angular everything",
      "body": "Angular is the powerhouse Framework!",
      "tags": [
        "angular",
        "front-end"
      ],
      "username": "dewaldels",
      "userId": "eed366088eaad-67f04d0c18e17",
      "createdAt": 1616091361155
    },
    {
      "id": "abb4d7627099a-b83434f64b2cc",
      "title": "Post with username",
      "body": "Creating a post with a username",
      "tags": [
        "react"
      ],
      "userId": "eed366088eaad-67f04d0c18e17",
      "username": "dewaldels",
      "createdAt": 1616533153920
    },
    {
      "id": "6b6cb77176b51-7233286bbe69c",
      "title": "",
      "body": "Angular is the powerhouse Framework!",
      "tags": [
        "angular",
        "front-end"
      ],
      "userId": "eed366088eaad-67f04d0c18e17",
      "username": "dewaldels",
      "createdAt": 1616766271337
    }
  ],
  "sessions": [
    {
      "token": "ff570c09245c3-2c8088145135f",
      "userId": "eed366088eaad-67f04d0c18e17",
      "createdAt": 1616533033952
    }
  ]
}